%YAML 1.1
%TAG !u! tag:unity3d.com,2011:
--- !u!114 &11400000
MonoBehaviour:
  m_ObjectHideFlags: 0
  m_CorrespondingSourceObject: {fileID: 0}
  m_PrefabInstance: {fileID: 0}
  m_PrefabAsset: {fileID: 0}
  m_GameObject: {fileID: 0}
  m_Enabled: 1
  m_EditorHideFlags: 0
  m_Script: {fileID: 11500000, guid: a60dd74af2d908f4d804b402e214078e, type: 3}
  m_Name: Stage1 Data
  m_EditorClassIdentifier: 
  stageEvents:
  - eventType: 0
    time: 3
    message: Hord
    enemyTospawn: {fileID: 11400000, guid: cd5dc108bac5832479249de0601e1bc6, type: 2}
    objectTospawn: {fileID: 0}
    count: 20
    isRepeatedEvent: 0
    repeatEverySeconds: 0
    repeatCount: 0
  - eventType: 0
    time: 5
    message: MiniBoss
    enemyTospawn: {fileID: 0}
    objectTospawn: {fileID: 0}
    count: 1
    isRepeatedEvent: 0
    repeatEverySeconds: 0
    repeatCount: 0
  - eventType: 0
    time: 7
    message: Hord
    enemyTospawn: {fileID: 11400000, guid: 2814137361ae3634e97323f924bcecf2, type: 2}
    objectTospawn: {fileID: 0}
    count: 30
    isRepeatedEvent: 0
    repeatEverySeconds: 0
    repeatCount: 0
  - eventType: 0
    time: 10
    message: Boss
    enemyTospawn: {fileID: 0}
    objectTospawn: {fileID: 0}
    count: 1
    isRepeatedEvent: 0
    repeatEverySeconds: 0
    repeatCount: 0
  - eventType: 2
    time: 15
    message: You Won
    enemyTospawn: {fileID: 0}
    objectTospawn: {fileID: 0}
    count: 0
    isRepeatedEvent: 0
    repeatEverySeconds: 0
    repeatCount: 0
