%YAML 1.1
%TAG !u! tag:unity3d.com,2011:
--- !u!114 &11400000
MonoBehaviour:
  m_ObjectHideFlags: 0
  m_CorrespondingSourceObject: {fileID: 0}
  m_PrefabInstance: {fileID: 0}
  m_PrefabAsset: {fileID: 0}
  m_GameObject: {fileID: 0}
  m_Enabled: 1
  m_EditorHideFlags: 0
  m_Script: {fileID: 11500000, guid: 6642a4332761b6d45b67619a10b009da, type: 3}
  m_Name: NyanDog 1
  m_EditorClassIdentifier: 
  upgradetype: 0
  Name: Thrown
  icon: {fileID: 1782931793, guid: 727d2fd905706b543863fe115a0859cf, type: 3}
  Discliption: {fileID: 21300000, guid: 40fba8a43f7f8d0418e85b63416ac968, type: 3}
  weaponData: {fileID: 11400000, guid: 29f0db27927702b4a8b59ff3b87fbfd4, type: 2}
  weaponupgradeStats:
    damage: 90
    timeToAttack: 5
  item: {fileID: 0}
  itemStats:
    armor: 0
