%YAML 1.1
%TAG !u! tag:unity3d.com,2011:
--- !u!114 &11400000
MonoBehaviour:
  m_ObjectHideFlags: 0
  m_CorrespondingSourceObject: {fileID: 0}
  m_PrefabInstance: {fileID: 0}
  m_PrefabAsset: {fileID: 0}
  m_GameObject: {fileID: 0}
  m_Enabled: 1
  m_EditorHideFlags: 0
  m_Script: {fileID: 11500000, guid: 312669e6fef556948b71351e16bf2f6c, type: 3}
  m_Name: Boss
  m_EditorClassIdentifier: 
  Name: Boss
  animatedPrefab: {fileID: 9115257450039545414, guid: 993effe7d88b13e40a6b46640bc8f883, type: 3}
  stats:
    hp: 500
    damage: 30
    exp_reward: 2000
    speed: 3
